{  
   "experiment":"AdaBoost_Classification_Results_2018-05-11 13:15:32.002030.json",
   "normalized_data":false,
   "short_time_period":true,
   "model_name":"<class 'sklearn.ensemble.weight_boosting.AdaBoostClassifier'>",
   "number_of_testing_samples":756,
   "features_used":[  
      "Net_Setttlm_total_6",
      "Gross_Margin_6",
      "BR_mmb_rate",
      "cancel_rate_1",
      "Gross_Setttlm_6",
      "SPU_sales_ratio",
      "PU_conversion_rate",
      "Total_Cost",
      "Processing_Cost_6",
      "avg_net_rev_6",
      "sales_PU_ratio"
   ],
   "hyperparameters":{  
      "base_estimator":{  
         "name":"DecisionTreeClassifier",
         "max_depth":2
      },
      "algorithm":"SAMME",
      "learning_rate":0.05,
      "n_estimators":5000,
      "random_state":260
   },
   "precision-specificity(tp/tp+fp)":0.7872340425531915,
   "recall-sensitivity(tp/tp+fn)":0.36633663366336633,
   "confusion_matrix":{  
      "matrix_desc":[  
         "[645(TN), 10(FP)]",
         "[64(FN), 37(TP)]"
      ],
      "matrix_acc":0.9021164021164021
   },
   "f1_score":0.5,
   "matthews_correlation_coefficient":0.4946549270034703,
   "prediction_threshold":0.5,
   "area_under_curve":0.6755347290454236
}

