{  
   "experiment":"Classification_Results_2018-04-18 16:11:08.171043.json",
   "model_name":"<class 'sklearn.ensemble.forest.RandomForestClassifier'>",
   "number_of_testing_samples":399,
   "features_used":[  
      "Started_Audiobooks_5",
      "Consumed_Audiobooks_5",
      "Consumed_1_5",
      "Total_Seconds_5",
      "Start_End_5",
      "Perc_Day_5",
      "Invoice_Cost_5",
      "Avg_Cost_Read_5"
   ],
   "hyperparameters":{  
      "number_of_trees":100,
      "seed":132069
   },
   "precision":0.4176470588235294,
   "recall/sensitivity":0.8160919540229885,
   "confusion_matrix":{  
      "matrix":[  
         [213,99],
         [16,71]
      ],
      "matrix_acc":0.7117794486215538
   },
   "f1_score":0.5525291828793775,
   "matthews_correlation_coefficient":0.4164927664307872,
   "prediction_threshold":0.5
}

