{  
   "experiment":"RandomForests_Classification_Results_2018-05-11 09:51:43.914677.json",
   "model_name":"<class 'sklearn.ensemble.forest.RandomForestClassifier'>",
    "normalized_data":false,
   "number_of_testing_samples":756,
   "features_used":[  
      "Gross_Margin_36",
      "GM_growth_rate_36",
      "rev_VS_cost_36",
      "avg_net_rev_36",
      "Gross_Margin_6",
      "SPU_sales_ratio",
      "avg_rev_36",
      "total_cancel_rate_36",
      "avg_net_rev_6",
      "PU_conversion_rate",
      "rev_VS_cost_6"
   ],
   "hyperparameters":{  
      "seed":132069
   },
   "precision-specificity(tp/tp+fp)":0.8666666666666667,
   "recall-sensitivity(tp/tp+fn)":0.7722772277227723,
   "confusion_matrix":{  
      "matrix_desc":[  
                       "Predicted",
          "Actuall","[643(TN), 12(FP)]",
                    "[23(FN), 78(TP0]"
      ],
      "matrix_acc":0.9537037037037037
   },
   "f1_score":0.8167539267015707,
   "matthews_correlation_coefficient":0.7920805055479446,
   "prediction_threshold":0.5,
   "area_under_curve":0.8769783085178746
}

